…
<img src="risk_factors_files/figure-gfm/unnamed-chunk-6-1.png" width="90%" /><img src="risk_factors_files/figure-gfm/unnamed-chunk-6-2.png" width="90%" />

    ## # A tibble: 12,646 x 12
    ## # Groups:   month, year, boro, statistical_murder_flag, perp_age_group,
    ## #   vic_age_group, perp_sex, perp_race, vic_sex [11,255]
    ##    month   year  boro  statistical_murder~ perp_age_group vic_age_group perp_sex
    ##    <fct>   <fct> <fct> <fct>               <chr>          <chr>         <fct>   
    ##  1 January 2006  BRONX FALSE               <18            <18           M       
    ##  2 January 2006  BRONX FALSE               18-24          <18           M       
    ##  3 January 2006  BRONX FALSE               18-24          18-24         M       
    ##  4 January 2006  BRONX FALSE               18-24          18-24         M       
    ##  5 January 2006  BRONX FALSE               18-24          18-24         M       
    ##  6 January 2006  BRONX FALSE               18-24          18-24         M       
    ##  7 January 2006  BRONX FALSE               18-24          25-44         M       
    ##  8 January 2006  BRONX FALSE               25-44          18-24         M       
    ##  9 January 2006  BRONX FALSE               25-44          18-24         M       
    ## 10 January 2006  BRONX FALSE               25-44          25-44         M       
    ## # ... with 12,636 more rows, and 5 more variables: perp_race <fct>,
    ## #   vic_sex <fct>, vic_race <fct>, number_shoot <dbl>, pred <dbl>
…
